module github.com/okta/terraform-provider-okta

go 1.15

require (
	github.com/bflad/tfproviderlint v0.26.0
	github.com/cenkalti/backoff/v4 v4.1.0
	github.com/client9/misspell v0.3.4
	github.com/crewjam/saml v0.4.5
	github.com/hashicorp/go-cleanhttp v0.5.2
	github.com/hashicorp/go-cty v1.4.1-0.20200414143053-d3edf31b6320
	github.com/hashicorp/go-hclog v0.15.0
	github.com/hashicorp/go-retryablehttp v0.6.8
	github.com/hashicorp/terraform-plugin-sdk/v2 v2.5.0
	github.com/okta/okta-sdk-golang/v2 v2.3.1-0.20210317124025-8a2c70f65200
)
